<svg width="150.91mm" height="34.408mm" version="1.1" viewBox="0 0 150.91 34.408" xmlns="http://www.w3.org/2000/svg">
 <g transform="translate(-43.289 -122.35)">
  <path d="m79.102 130.04v23.9c0 1.5624 2.4696 2.8208 5.5361 2.8208h104.02c3.0664 0 5.5361-1.2583 5.5361-2.8208v-21.079c0-1.5624-2.4696-2.8208-5.5361-2.8208h-109.55z" fill="#ff544d" stroke-width=".83642"/>
  <path d="m71.073 129.61c-0.16428-1.3375-1.0413-7.4251-4.9825-7.2624-3.401 0.1796-4.3904 3.3699-5.4431 5.865-1.2544 3.4146-1.6896 4.1112-3.4673 4.1112-1.9223-0.0898-3.0836-2.7697-3.8585-3.8965-0.62843-0.93611-2.2977-3.8237-4.6778-3.7339-1.2962 0-3.322 0.65967-4.5997 3.9363-1.1565 3.5214-0.71843 7.0718-0.41566 8.5955 1.0118 3.7731 1.6055 5.9961 3.384 5.74 1.9117-0.13428 0.84789-3.0322 0.35263-4.5513-0.31675-0.94557-1.4282-4.0967-0.15568-4.8316 1.3362-0.86203 2.5473 2.4052 3.8121 4.3389 1.1394 1.9822 1.8919 4.2739 5.7703 4.3474 2.4243 0 3.8473-1.3974 4.5507-2.7288 1.0392-2.1468 2.3012-9.4102 5.0424-9.4794 1.9995 0.0795 1.4638 3.416 1.4359 4.627-0.07857 1.3435-0.97552 4.1315 1.2688 4.4054 2.6124 0.0451 2.3116-7.0405 1.9835-9.483z" fill="#fff" stroke-width=".59169"/>
  <g fill="#fff" stroke-width=".69505px" aria-label="CineDoc&amp;Roll">
   <path d="m94.299 141.64q-0.33362-0.8841-1.0009-1.4513-0.66725-0.58384-1.885-0.58384-0.68393 0-1.2844 0.25022-0.60052 0.23354-1.0509 0.73397-0.45039 0.48376-0.71729 1.2344-0.2669 0.73397-0.2669 1.7515t0.2669 1.7682q0.2669 0.73397 0.71729 1.2344 0.45039 0.48375 1.0509 0.73397 0.60052 0.23353 1.2844 0.23353 1.2177 0 1.885-0.56716 0.66725-0.58384 1.0009-1.4679l1.9517 0.50044q-0.41703 1.6848-1.6681 2.6189-1.2511 0.91746-3.1694 0.91746-1.101 0-2.1018-0.38367-0.98419-0.38366-1.7515-1.1343-0.76733-0.75066-1.2177-1.8683-0.45039-1.1176-0.45039-2.5856t0.45039-2.5856 1.2177-1.8683 1.7515-1.1343q1.0009-0.38366 2.1018-0.38366 1.9183 0 3.1694 0.93414 1.2511 0.91746 1.6681 2.6023z"/>
   <path d="m97.524 138.58q0-0.56715 0.36698-0.95082 0.38367-0.38367 0.96751-0.38367t0.95082 0.38367q0.38366 0.38367 0.38366 0.95082 0 0.56716-0.38366 0.95083-0.36698 0.38367-0.95082 0.38367t-0.96751-0.38367q-0.36698-0.38367-0.36698-0.95083zm2.3687 2.4188v8.4073h-2.0685v-8.4073z"/>
   <path d="m103.76 141v1.3512q0.46708-0.66724 1.1176-1.0676 0.66725-0.41703 1.4846-0.41703 1.1343 0 1.8516 0.63389 0.73397 0.63388 0.73397 1.9016v6.0052h-2.0685v-5.388q0-0.75065-0.33362-1.0676-0.33363-0.31695-0.86742-0.31695-0.38367 0-0.73397 0.23354-0.33363 0.21686-0.60053 0.65056-0.26689 0.43371-0.43371 1.0676-0.15013 0.63388-0.15013 1.4679v3.3529h-2.0685v-8.4073z"/>
   <path d="m118.48 145.87h-5.7884q0.0167 0.3503 0.15013 0.70061 0.13345 0.33362 0.38367 0.60052t0.60052 0.43371q0.36698 0.16681 0.85074 0.16681 0.71729 0 1.1677-0.30026 0.45039-0.31694 0.81738-0.90078l1.6681 0.6172q-0.25022 0.51711-0.58384 0.95082t-0.78401 0.75066q-0.4504 0.30026-1.0509 0.48375-0.58384 0.16681-1.3512 0.16681-1.0843 0-1.8516-0.40035-0.76733-0.40034-1.2511-1.0176-0.48376-0.63388-0.71729-1.4012-0.21686-0.76734-0.21686-1.518t0.21686-1.518q0.23353-0.76734 0.71729-1.3845 0.48375-0.63388 1.2511-1.0342 0.76734-0.40035 1.8516-0.40035 1.0509 0 1.7849 0.40035 0.75066 0.38367 1.2177 1.0009 0.48375 0.60052 0.70061 1.3345 0.21685 0.73397 0.21685 1.4179zm-3.9201-3.2362q-0.40035 0-0.71729 0.15013-0.30026 0.13345-0.5338 0.36699-0.21685 0.21685-0.36698 0.50043t-0.20018 0.58384h3.6198q-0.0667-0.31694-0.20017-0.60052-0.13345-0.28358-0.3503-0.50043-0.21686-0.23354-0.5338-0.36699-0.30026-0.13345-0.71729-0.13345z"/>
   <path d="m120.28 149.41v-11.677h3.6532q1.0342 0 2.0017 0.33362 0.98419 0.33362 1.7515 1.0509 0.76734 0.71729 1.2177 1.8182 0.46707 1.101 0.46707 2.6356 0 1.5347-0.46707 2.6356-0.45039 1.101-1.2177 1.8182-0.76733 0.71729-1.7515 1.0509-0.9675 0.33362-2.0017 0.33362zm2.9692-2.0017q0.7006 0 1.4012-0.16681t1.2511-0.58384q0.56716-0.43371 0.91746-1.1677 0.35031-0.75065 0.35031-1.9183t-0.35031-1.9016q-0.3503-0.75065-0.91746-1.1677-0.55048-0.43371-1.2511-0.60052-0.70061-0.16682-1.4012-0.16682h-0.8007v7.6733z"/>
   <path d="m130.75 145.21q0-0.91746 0.28358-1.7015 0.28358-0.80069 0.83406-1.3845t1.3345-0.91746q0.8007-0.33363 1.8182-0.33363t1.8016 0.33363q0.8007 0.33362 1.3512 0.91746 0.55048 0.58384 0.83406 1.3845 0.28358 0.78402 0.28358 1.7015t-0.28358 1.7182q-0.28358 0.78401-0.83406 1.3678-0.55047 0.58384-1.3512 0.91747-0.78401 0.33362-1.8016 0.33362t-1.8182-0.33362q-0.78401-0.33363-1.3345-0.91747t-0.83406-1.3678q-0.28358-0.8007-0.28358-1.7182zm2.1686 0q0 0.51712 0.13345 0.98419 0.15013 0.46707 0.41703 0.81738 0.2669 0.3503 0.65056 0.56715 0.40035 0.20018 0.90079 0.20018 0.50043 0 0.8841-0.20018 0.40035-0.21685 0.66724-0.56715 0.2669-0.35031 0.40035-0.81738 0.15013-0.46707 0.15013-0.98419 0-0.51711-0.15013-0.98419-0.13345-0.46707-0.40035-0.81737-0.26689-0.35031-0.66724-0.55048-0.38367-0.21686-0.8841-0.21686-0.50044 0-0.90079 0.21686-0.38366 0.20017-0.65056 0.55048-0.2669 0.3503-0.41703 0.81737-0.13345 0.46708-0.13345 0.98419z"/>
   <path d="m148.58 147.14q-0.48375 1.201-1.4513 1.8016-0.95082 0.60052-2.3687 0.60052-1.0342 0-1.8016-0.33362-0.76734-0.35031-1.2844-0.93415-0.50044-0.60052-0.76734-1.3845-0.25021-0.8007-0.25021-1.6848t0.25021-1.6681q0.2669-0.8007 0.76734-1.3845 0.51711-0.60052 1.2844-0.93414 0.76733-0.35031 1.8016-0.35031 1.4179 0 2.3687 0.60052 0.96751 0.60052 1.4513 1.8016l-1.8516 0.75065q-0.33363-0.66725-0.8007-1.0176-0.46707-0.36699-1.1677-0.36699-0.98419 0-1.4679 0.73397-0.46707 0.71729-0.46707 1.8349t0.46707 1.8516q0.48375 0.71729 1.4679 0.71729 0.70061 0 1.1677-0.35031 0.46707-0.36698 0.8007-1.0342z"/>
   <path d="m153.72 149.54q-0.78402 0-1.468-0.23354-0.66724-0.25021-1.1677-0.7006-0.50043-0.46708-0.78401-1.1176-0.28358-0.66725-0.28358-1.518 0-0.65056 0.18349-1.201 0.1835-0.56716 0.48376-1.0176 0.31694-0.45039 0.71729-0.78401 0.40034-0.35031 0.83405-0.60052-0.3503-0.48376-0.58384-1.0676-0.21685-0.60052-0.21685-1.2177 0-0.51712 0.18349-0.96751 0.20017-0.45039 0.55048-0.78401 0.3503-0.33363 0.85074-0.5338 0.50043-0.20017 1.1343-0.20017 0.65056 0 1.151 0.20017 0.50043 0.20017 0.85073 0.5338 0.35031 0.31694 0.51712 0.73397 0.18349 0.41703 0.18349 0.86742 0 0.53379-0.16681 0.98419-0.15013 0.45039-0.41703 0.83405-0.25022 0.36699-0.60052 0.66725-0.3503 0.28358-0.71729 0.48375l1.9183 2.5189q0.23354-0.45039 0.43371-0.93415 0.20018-0.48375 0.41703-1.1677l1.201 1.4012q-0.13345 0.58384-0.35031 1.1677-0.21685 0.56716-0.51711 1.0843l1.8683 2.4354h-2.4521l-0.68392-0.90078q-0.60052 0.48375-1.3679 0.76733-0.75065 0.2669-1.7015 0.2669zm0.0167-1.9183q0.63388 0 1.0676-0.15013 0.43371-0.16681 0.83406-0.50044l-2.352-3.136q-0.60053 0.36698-0.93415 0.91746t-0.33362 1.1844q0 0.70061 0.45039 1.201 0.46707 0.48376 1.2678 0.48376zm0.41703-8.2572q-0.38367 0-0.63389 0.23353-0.25021 0.23354-0.25021 0.61721 0 0.38366 0.15013 0.68392 0.15013 0.30027 0.38366 0.60053 0.20018-0.0834 0.40035-0.20018 0.21685-0.13345 0.38367-0.30026 0.18349-0.16681 0.28358-0.36698 0.11676-0.21686 0.11676-0.48376 0-0.3503-0.23353-0.56716-0.21686-0.21685-0.60052-0.21685z"/>
   <path d="m169.53 141.05q0 1.151-0.56715 1.9851-0.55048 0.81738-1.6181 1.151l3.2362 5.2212h-2.4188l-3.1361-5.0377h-1.1343v5.0377h-2.1686v-11.677h4.2537q0.86742 0 1.5347 0.25021 0.66724 0.25022 1.1176 0.68393t0.66725 1.0509q0.23353 0.61721 0.23353 1.3345zm-3.5364 1.3178q0.58384 0 0.96751-0.30027 0.40034-0.30026 0.40034-1.0176 0-0.71728-0.40034-1.0176-0.38367-0.30026-0.96751-0.30026h-2.1018v2.6356z"/>
   <path d="m171.41 145.21q0-0.91746 0.28358-1.7015 0.28358-0.80069 0.83405-1.3845 0.55048-0.58384 1.3345-0.91746 0.80069-0.33363 1.8182-0.33363t1.8016 0.33363q0.80069 0.33362 1.3512 0.91746t0.83406 1.3845q0.28358 0.78402 0.28358 1.7015t-0.28358 1.7182q-0.28358 0.78401-0.83406 1.3678t-1.3512 0.91747q-0.78402 0.33362-1.8016 0.33362t-1.8182-0.33362q-0.78402-0.33363-1.3345-0.91747-0.55047-0.58384-0.83405-1.3678-0.28358-0.8007-0.28358-1.7182zm2.1686 0q0 0.51712 0.13345 0.98419 0.15013 0.46707 0.41702 0.81738 0.2669 0.3503 0.65057 0.56715 0.40035 0.20018 0.90078 0.20018 0.50044 0 0.8841-0.20018 0.40035-0.21685 0.66725-0.56715 0.2669-0.35031 0.40035-0.81738 0.15013-0.46707 0.15013-0.98419 0-0.51711-0.15013-0.98419-0.13345-0.46707-0.40035-0.81737-0.2669-0.35031-0.66725-0.55048-0.38366-0.21686-0.8841-0.21686-0.50043 0-0.90078 0.21686-0.38367 0.20017-0.65057 0.55048-0.26689 0.3503-0.41702 0.81737-0.13345 0.46708-0.13345 0.98419z"/>
   <path d="m183.69 137.6v11.81h-2.0685v-11.81z"/>
   <path d="m187.41 137.6v11.81h-2.0685v-11.81z"/>
  </g>
 </g>
</svg>
