<svg version="1.1" viewBox="0 0 800 421.13" xmlns="http://www.w3.org/2000/svg">
 <g fill="#f19212">
  <path d="m44.103 405.43a12.079 12.079 0 0 0 5.6224-10.773 8.4093 8.4093 0 0 0-3.8612-6.8724 35.643 35.643 0 0 0-9.341-4.8675c-3.6645-1.3384-7.2904-2.8242-10.906-4.4687a26.504 26.504 0 0 1-9.2484-6.9506 16.351 16.351 0 0 1-3.8558-11.013 24.084 24.084 0 0 1 7.9305-18.816 32.744 32.744 0 0 1 22.636-7.1401 35.934 35.934 0 0 1 9.0788 1.1471 32.468 32.468 0 0 1 7.2357 2.7068 48.302 48.302 0 0 1 4.9926 3.1135 28.189 28.189 0 0 1 3.2596 2.6714l0.94078 1.1748-9.9913 8.3365-1.7943-1.9995a21.944 21.944 0 0 0-5.6164-3.1412 22.903 22.903 0 0 0-9.4619-1.9724 17.204 17.204 0 0 0-11.545 3.496 10.679 10.679 0 0 0-4.0855 8.3696 8.1807 8.1807 0 0 0 2.7562 6.0092 20.026 20.026 0 0 0 6.8856 4.2335c2.7399 1.0322 5.7427 2.2563 8.9861 3.6657a97.227 97.227 0 0 1 8.9627 4.4032 19.842 19.842 0 0 1 6.8483 6.4309 16.795 16.795 0 0 1 2.767 9.5383 25.986 25.986 0 0 1-8.8424 20.726 36.665 36.665 0 0 1-24.721 7.6315 42.221 42.221 0 0 1-10.96-1.3835 32.969 32.969 0 0 1-8.4339-3.2831 53.06 53.06 0 0 1-5.7102-3.8455 27.49 27.49 0 0 1-3.5821-3.229l-1.0497-1.4695 9.9919-8.2818 0.75491 1.0436a20.916 20.916 0 0 0 2.4175 2.278 26.057 26.057 0 0 0 4.1126 2.8789 27.189 27.189 0 0 0 5.9942 2.2948 30.562 30.562 0 0 0 7.9906 1.0226 23.061 23.061 0 0 0 12.841-3.6651" stroke-width="6.0152"/>
  <polygon transform="scale(6.0152)" points="33.245 69.805 31.047 69.805 33.587 57.812 29.387 57.812 29.807 55.809 40.407 55.809 39.988 57.812 35.786 57.812"/>
  <path d="m354.97 349.21a48.163 48.163 0 0 1 34.74-14.684 41.207 41.207 0 0 1 29.817 11.133 36.434 36.434 0 0 1 11.556 27.331 45.099 45.099 0 0 1-15.046 33.783 48.863 48.863 0 0 1-34.68 14.296 41.271 41.271 0 0 1-29.835-11.128 36.456 36.456 0 0 1-11.54-27.331 45.579 45.579 0 0 1 14.986-33.4m9.4313 7.9323a32.956 32.956 0 0 0-10.955 24.422 26.578 26.578 0 0 0 8.0724 19.661 28.063 28.063 0 0 0 20.608 7.981 34.545 34.545 0 0 0 24.693-10.472 33.357 33.357 0 0 0 10.807-24.747 26.256 26.256 0 0 0-8.0778-19.489 28.217 28.217 0 0 0-20.608-7.9269 34.539 34.539 0 0 0-24.542 10.576" stroke-width="6.0152"/>
  <path d="m541.17 335.22h33.8a23.885 23.885 0 0 1 17.051 6.5662 20.77 20.77 0 0 1 6.9295 15.558 27.513 27.513 0 0 1-15.812 25.473c-0.78739 0.39881-3.0136 1.3661-6.6998 2.939l11.934 33.635h-14.103l-10.938-32.461h-19.859l-6.8802 32.461h-13.233zm38.946 35.129a14.418 14.418 0 0 0 5.2068-11.303 11.637 11.637 0 0 0-3.3583-8.3142 11.004 11.004 0 0 0-8.2854-3.4852h-21.811l-5.8739 27.648h22.387a17.364 17.364 0 0 0 11.737-4.5451" stroke-width="6.0152"/>
  <polygon transform="scale(6.0152)" points="121.68 64.808 120.63 69.805 118.43 69.805 119.49 64.808 116.28 55.809 118.57 55.809 120.95 62.505 126.17 55.809 128.69 55.809"/>
  <path d="m246.21 83.929c0-76.754-56.381-76.754-62.463-76.754-6.0814 0-133.58-0.16842-133.58-0.16842l-32.257 279.01h84.028l6.6444-87.794a10.166 10.166 0 0 1 9.3838-8.2763 9.3416 9.3416 0 0 1 9.4018 6.621l21.007 88.905h81.257l-29.845-107.67s46.427-17.121 46.427-93.874m-80.702 19.874c-1.6572 31.472-27.089 33.685-27.089 33.685h-23.775l6.085-73.433h19.344c6.6342 0 27.088 8.2757 25.432 39.747" stroke-width="6.0152"/>
  <polygon transform="scale(6.0152)" points="79.437 1.562 91.383 1.562 87.063 47.458 74.749 47.458 75.944 30.017 67.764 47.458 63.629 47.458 58.391 31.026 56.552 47.458 44.424 47.458 49.57 1.47 61.149 1.47 67.95 23.683" Googl="true"/>
  <path d="m752.56 108.78h13.268l33.718-55.776a15.41 15.41 0 0 0-4.9656-15.459c-7.7452-7.7248-29.857-37.547-86.249-37.547-56.363 0-118.06 47.385-130.45 131.41-10.501 71.236 12.722 140.81 79.609 157.36 66.871 16.568 114.97-27.61 122.16-45.823 2.21-6.6324 2.21-7.7302 0-11.593-2.21-3.8624-22.664-42.517-22.664-42.517h-13.268a10.308 10.308 0 0 0-7.187 3.8624 99.032 99.032 0 0 1-22.669 19.322c-9.9432 8.8334-63.005 7.1888-59.696-59.075 6.0814-72.886 58.047-72.886 58.047-72.886s18.798-3.8678 40.351 28.718" stroke-width="6.0152"/>
 </g>
</svg>
